('C:\\Users\\Mijail '
 'QA\\Documents\\ToolAutomateCliente\\toolautometricaspy\\Speech_Recognition\\build\\sr\\PKG-00.pkg',
 {'BINARY': 1,
  'DATA': 1,
  'EXECUTABLE': 1,
  'EXTENSION': 1,
  'PYMODULE': 1,
  'PYSOURCE': 1,
  'PYZ': 0},
 [('PYZ-00.pyz',
   'C:\\Users\\Mijail '
   'QA\\Documents\\ToolAutomateCliente\\toolautometricaspy\\Speech_Recognition\\build\\sr\\PYZ-00.pyz',
   'PYZ'),
  ('struct',
   'c:\\users\\mijail '
   'qa\\appdata\\local\\programs\\python\\python37\\lib\\struct.pyo',
   'PYMODULE'),
  ('pyimod01_os_path',
   'c:\\users\\mijail '
   'qa\\appdata\\local\\programs\\python\\python37\\lib\\site-packages\\PyInstaller\\loader\\pyimod01_os_path.pyc',
   'PYMODULE'),
  ('pyimod02_archive',
   'c:\\users\\mijail '
   'qa\\appdata\\local\\programs\\python\\python37\\lib\\site-packages\\PyInstaller\\loader\\pyimod02_archive.pyc',
   'PYMODULE'),
  ('pyimod03_importers',
   'c:\\users\\mijail '
   'qa\\appdata\\local\\programs\\python\\python37\\lib\\site-packages\\PyInstaller\\loader\\pyimod03_importers.pyc',
   'PYMODULE'),
  ('pyiboot01_bootstrap',
   'c:\\users\\mijail '
   'qa\\appdata\\local\\programs\\python\\python37\\lib\\site-packages\\PyInstaller\\loader\\pyiboot01_bootstrap.py',
   'PYSOURCE'),
  ('sr',
   'C:\\Users\\Mijail '
   'QA\\Documents\\ToolAutomateCliente\\toolautometricaspy\\Speech_Recognition\\sr.py',
   'PYSOURCE'),
  ('python37.dll',
   'c:\\users\\mijail '
   'qa\\appdata\\local\\programs\\python\\python37\\python37.dll',
   'BINARY'),
  ('VCRUNTIME140.dll',
   'c:\\users\\mijail '
   'qa\\appdata\\local\\programs\\python\\python37\\VCRUNTIME140.dll',
   'BINARY'),
  ('_ssl',
   'c:\\users\\mijail '
   'qa\\appdata\\local\\programs\\python\\python37\\DLLs\\_ssl.pyd',
   'EXTENSION'),
  ('pyexpat',
   'c:\\users\\mijail '
   'qa\\appdata\\local\\programs\\python\\python37\\DLLs\\pyexpat.pyd',
   'EXTENSION'),
  ('unicodedata',
   'c:\\users\\mijail '
   'qa\\appdata\\local\\programs\\python\\python37\\DLLs\\unicodedata.pyd',
   'EXTENSION'),
  ('_hashlib',
   'c:\\users\\mijail '
   'qa\\appdata\\local\\programs\\python\\python37\\DLLs\\_hashlib.pyd',
   'EXTENSION'),
  ('_bz2',
   'c:\\users\\mijail '
   'qa\\appdata\\local\\programs\\python\\python37\\DLLs\\_bz2.pyd',
   'EXTENSION'),
  ('_lzma',
   'c:\\users\\mijail '
   'qa\\appdata\\local\\programs\\python\\python37\\DLLs\\_lzma.pyd',
   'EXTENSION'),
  ('_socket',
   'c:\\users\\mijail '
   'qa\\appdata\\local\\programs\\python\\python37\\DLLs\\_socket.pyd',
   'EXTENSION'),
  ('select',
   'c:\\users\\mijail '
   'qa\\appdata\\local\\programs\\python\\python37\\DLLs\\select.pyd',
   'EXTENSION'),
  ('_portaudio',
   'c:\\users\\mijail '
   'qa\\appdata\\local\\programs\\python\\python37\\lib\\site-packages\\_portaudio.cp37-win_amd64.pyd',
   'EXTENSION'),
  ('win32wnet',
   'c:\\users\\mijail '
   'qa\\appdata\\local\\programs\\python\\python37\\lib\\site-packages\\win32\\win32wnet.pyd',
   'EXTENSION'),
  ('_ctypes',
   'c:\\users\\mijail '
   'qa\\appdata\\local\\programs\\python\\python37\\DLLs\\_ctypes.pyd',
   'EXTENSION'),
  ('libssl-1_1.dll',
   'c:\\users\\mijail '
   'qa\\appdata\\local\\programs\\python\\python37\\DLLs\\libssl-1_1.dll',
   'BINARY'),
  ('libcrypto-1_1.dll',
   'c:\\users\\mijail '
   'qa\\appdata\\local\\programs\\python\\python37\\DLLs\\libcrypto-1_1.dll',
   'BINARY'),
  ('pywintypes37.dll',
   'c:\\users\\mijail '
   'qa\\appdata\\local\\programs\\python\\python37\\lib\\site-packages\\pywin32_system32\\pywintypes37.dll',
   'BINARY'),
  ('base_library.zip',
   'C:\\Users\\Mijail '
   'QA\\Documents\\ToolAutomateCliente\\toolautometricaspy\\Speech_Recognition\\build\\sr\\base_library.zip',
   'DATA'),
  ('speech_recognition\\flac-win32.exe',
   'c:\\users\\mijail '
   'qa\\appdata\\local\\programs\\python\\python37\\lib\\site-packages\\speech_recognition\\flac-win32.exe',
   'DATA'),
  ('speech_recognition\\pocketsphinx-data\\en-US\\LICENSE.txt',
   'c:\\users\\mijail '
   'qa\\appdata\\local\\programs\\python\\python37\\lib\\site-packages\\speech_recognition\\pocketsphinx-data\\en-US\\LICENSE.txt',
   'DATA'),
  ('speech_recognition\\pocketsphinx-data\\en-US\\acoustic-model\\README',
   'c:\\users\\mijail '
   'qa\\appdata\\local\\programs\\python\\python37\\lib\\site-packages\\speech_recognition\\pocketsphinx-data\\en-US\\acoustic-model\\README',
   'DATA'),
  ('speech_recognition\\flac-mac',
   'c:\\users\\mijail '
   'qa\\appdata\\local\\programs\\python\\python37\\lib\\site-packages\\speech_recognition\\flac-mac',
   'DATA'),
  ('speech_recognition\\pocketsphinx-data\\en-US\\acoustic-model\\mdef',
   'c:\\users\\mijail '
   'qa\\appdata\\local\\programs\\python\\python37\\lib\\site-packages\\speech_recognition\\pocketsphinx-data\\en-US\\acoustic-model\\mdef',
   'DATA'),
  ('Include\\pyconfig.h',
   'c:\\users\\mijail '
   'qa\\appdata\\local\\programs\\python\\python37\\Include\\pyconfig.h',
   'DATA'),
  ('speech_recognition\\pocketsphinx-data\\en-US\\acoustic-model\\feat.params',
   'c:\\users\\mijail '
   'qa\\appdata\\local\\programs\\python\\python37\\lib\\site-packages\\speech_recognition\\pocketsphinx-data\\en-US\\acoustic-model\\feat.params',
   'DATA'),
  ('speech_recognition\\pocketsphinx-data\\en-US\\acoustic-model\\sendump',
   'c:\\users\\mijail '
   'qa\\appdata\\local\\programs\\python\\python37\\lib\\site-packages\\speech_recognition\\pocketsphinx-data\\en-US\\acoustic-model\\sendump',
   'DATA'),
  ('speech_recognition\\pocketsphinx-data\\en-US\\language-model.lm.bin',
   'c:\\users\\mijail '
   'qa\\appdata\\local\\programs\\python\\python37\\lib\\site-packages\\speech_recognition\\pocketsphinx-data\\en-US\\language-model.lm.bin',
   'DATA'),
  ('speech_recognition\\flac-linux-x86_64',
   'c:\\users\\mijail '
   'qa\\appdata\\local\\programs\\python\\python37\\lib\\site-packages\\speech_recognition\\flac-linux-x86_64',
   'DATA'),
  ('speech_recognition\\flac-linux-x86',
   'c:\\users\\mijail '
   'qa\\appdata\\local\\programs\\python\\python37\\lib\\site-packages\\speech_recognition\\flac-linux-x86',
   'DATA'),
  ('speech_recognition\\pocketsphinx-data\\en-US\\pronounciation-dictionary.dict',
   'c:\\users\\mijail '
   'qa\\appdata\\local\\programs\\python\\python37\\lib\\site-packages\\speech_recognition\\pocketsphinx-data\\en-US\\pronounciation-dictionary.dict',
   'DATA'),
  ('speech_recognition\\pocketsphinx-data\\en-US\\acoustic-model\\variances',
   'c:\\users\\mijail '
   'qa\\appdata\\local\\programs\\python\\python37\\lib\\site-packages\\speech_recognition\\pocketsphinx-data\\en-US\\acoustic-model\\variances',
   'DATA'),
  ('speech_recognition\\pocketsphinx-data\\en-US\\acoustic-model\\means',
   'c:\\users\\mijail '
   'qa\\appdata\\local\\programs\\python\\python37\\lib\\site-packages\\speech_recognition\\pocketsphinx-data\\en-US\\acoustic-model\\means',
   'DATA'),
  ('speech_recognition\\pocketsphinx-data\\en-US\\acoustic-model\\transition_matrices',
   'c:\\users\\mijail '
   'qa\\appdata\\local\\programs\\python\\python37\\lib\\site-packages\\speech_recognition\\pocketsphinx-data\\en-US\\acoustic-model\\transition_matrices',
   'DATA'),
  ('speech_recognition\\pocketsphinx-data\\en-US\\acoustic-model\\noisedict',
   'c:\\users\\mijail '
   'qa\\appdata\\local\\programs\\python\\python37\\lib\\site-packages\\speech_recognition\\pocketsphinx-data\\en-US\\acoustic-model\\noisedict',
   'DATA'),
  ('sr.exe.manifest',
   'C:\\Users\\Mijail '
   'QA\\Documents\\ToolAutomateCliente\\toolautometricaspy\\Speech_Recognition\\build\\sr\\sr.exe.manifest',
   'BINARY'),
  ('pyi-windows-manifest-filename sr.exe.manifest', '', 'OPTION')],
 False,
 False,
 False,
 [])
