(['C:\\Users\\Mijail QA\\Desktop\\Nats-Server-Subscriber\\Ram-Cpu\\get-id.py'],
 ['C:\\Users\\Mijail QA\\Desktop\\Nats-Server-Subscriber\\Ram-Cpu',
  'C:\\Users\\Mijail QA\\Desktop\\Nats-Server-Subscriber\\Ram-Cpu'],
 ['codecs'],
 [],
 [],
 [],
 False,
 False,
 '3.7.5 (tags/v3.7.5:5c02a39a0b, Oct 15 2019, 00:11:34) [MSC v.1916 64 bit '
 '(AMD64)]',
 [('get-id',
   'C:\\Users\\Mijail QA\\Desktop\\Nats-Server-Subscriber\\Ram-Cpu\\get-id.py',
   'PYSOURCE')],
 [('ntpath',
   'c:\\users\\mijail '
   'qa\\appdata\\local\\programs\\python\\python37\\lib\\ntpath.py',
   'PYMODULE'),
  ('_strptime',
   'c:\\users\\mijail '
   'qa\\appdata\\local\\programs\\python\\python37\\lib\\_strptime.py',
   'PYMODULE'),
  ('datetime',
   'c:\\users\\mijail '
   'qa\\appdata\\local\\programs\\python\\python37\\lib\\datetime.py',
   'PYMODULE'),
  ('stringprep',
   'c:\\users\\mijail '
   'qa\\appdata\\local\\programs\\python\\python37\\lib\\stringprep.py',
   'PYMODULE'),
  ('tracemalloc',
   'c:\\users\\mijail '
   'qa\\appdata\\local\\programs\\python\\python37\\lib\\tracemalloc.py',
   'PYMODULE'),
  ('__future__',
   'c:\\users\\mijail '
   'qa\\appdata\\local\\programs\\python\\python37\\lib\\__future__.py',
   'PYMODULE'),
  ('difflib',
   'c:\\users\\mijail '
   'qa\\appdata\\local\\programs\\python\\python37\\lib\\difflib.py',
   'PYMODULE'),
  ('ast',
   'c:\\users\\mijail '
   'qa\\appdata\\local\\programs\\python\\python37\\lib\\ast.py',
   'PYMODULE'),
  ('inspect',
   'c:\\users\\mijail '
   'qa\\appdata\\local\\programs\\python\\python37\\lib\\inspect.py',
   'PYMODULE'),
  ('os',
   'c:\\users\\mijail '
   'qa\\appdata\\local\\programs\\python\\python37\\lib\\os.py',
   'PYMODULE'),
  ('cmd',
   'c:\\users\\mijail '
   'qa\\appdata\\local\\programs\\python\\python37\\lib\\cmd.py',
   'PYMODULE'),
  ('bdb',
   'c:\\users\\mijail '
   'qa\\appdata\\local\\programs\\python\\python37\\lib\\bdb.py',
   'PYMODULE'),
  ('opcode',
   'c:\\users\\mijail '
   'qa\\appdata\\local\\programs\\python\\python37\\lib\\opcode.py',
   'PYMODULE'),
  ('dis',
   'c:\\users\\mijail '
   'qa\\appdata\\local\\programs\\python\\python37\\lib\\dis.py',
   'PYMODULE'),
  ('codeop',
   'c:\\users\\mijail '
   'qa\\appdata\\local\\programs\\python\\python37\\lib\\codeop.py',
   'PYMODULE'),
  ('code',
   'c:\\users\\mijail '
   'qa\\appdata\\local\\programs\\python\\python37\\lib\\code.py',
   'PYMODULE'),
  ('glob',
   'c:\\users\\mijail '
   'qa\\appdata\\local\\programs\\python\\python37\\lib\\glob.py',
   'PYMODULE'),
  ('shlex',
   'c:\\users\\mijail '
   'qa\\appdata\\local\\programs\\python\\python37\\lib\\shlex.py',
   'PYMODULE'),
  ('runpy',
   'c:\\users\\mijail '
   'qa\\appdata\\local\\programs\\python\\python37\\lib\\runpy.py',
   'PYMODULE'),
  ('importlib._bootstrap',
   'c:\\users\\mijail '
   'qa\\appdata\\local\\programs\\python\\python37\\lib\\importlib\\_bootstrap.py',
   'PYMODULE'),
  ('importlib._bootstrap_external',
   'c:\\users\\mijail '
   'qa\\appdata\\local\\programs\\python\\python37\\lib\\importlib\\_bootstrap_external.py',
   'PYMODULE'),
  ('importlib.machinery',
   'c:\\users\\mijail '
   'qa\\appdata\\local\\programs\\python\\python37\\lib\\importlib\\machinery.py',
   'PYMODULE'),
  ('importlib.util',
   'c:\\users\\mijail '
   'qa\\appdata\\local\\programs\\python\\python37\\lib\\importlib\\util.py',
   'PYMODULE'),
  ('importlib.abc',
   'c:\\users\\mijail '
   'qa\\appdata\\local\\programs\\python\\python37\\lib\\importlib\\abc.py',
   'PYMODULE'),
  ('importlib',
   'c:\\users\\mijail '
   'qa\\appdata\\local\\programs\\python\\python37\\lib\\importlib\\__init__.py',
   'PYMODULE'),
  ('pkgutil',
   'c:\\users\\mijail '
   'qa\\appdata\\local\\programs\\python\\python37\\lib\\pkgutil.py',
   'PYMODULE'),
  ('xml',
   'c:\\users\\mijail '
   'qa\\appdata\\local\\programs\\python\\python37\\lib\\xml\\__init__.py',
   'PYMODULE'),
  ('xml.sax.expatreader',
   'c:\\users\\mijail '
   'qa\\appdata\\local\\programs\\python\\python37\\lib\\xml\\sax\\expatreader.py',
   'PYMODULE'),
  ('xml.sax.saxutils',
   'c:\\users\\mijail '
   'qa\\appdata\\local\\programs\\python\\python37\\lib\\xml\\sax\\saxutils.py',
   'PYMODULE'),
  ('urllib.request',
   'c:\\users\\mijail '
   'qa\\appdata\\local\\programs\\python\\python37\\lib\\urllib\\request.py',
   'PYMODULE'),
  ('getpass',
   'c:\\users\\mijail '
   'qa\\appdata\\local\\programs\\python\\python37\\lib\\getpass.py',
   'PYMODULE'),
  ('nturl2path',
   'c:\\users\\mijail '
   'qa\\appdata\\local\\programs\\python\\python37\\lib\\nturl2path.py',
   'PYMODULE'),
  ('ftplib',
   'c:\\users\\mijail '
   'qa\\appdata\\local\\programs\\python\\python37\\lib\\ftplib.py',
   'PYMODULE'),
  ('netrc',
   'c:\\users\\mijail '
   'qa\\appdata\\local\\programs\\python\\python37\\lib\\netrc.py',
   'PYMODULE'),
  ('http.cookiejar',
   'c:\\users\\mijail '
   'qa\\appdata\\local\\programs\\python\\python37\\lib\\http\\cookiejar.py',
   'PYMODULE'),
  ('urllib.response',
   'c:\\users\\mijail '
   'qa\\appdata\\local\\programs\\python\\python37\\lib\\urllib\\response.py',
   'PYMODULE'),
  ('urllib.error',
   'c:\\users\\mijail '
   'qa\\appdata\\local\\programs\\python\\python37\\lib\\urllib\\error.py',
   'PYMODULE'),
  ('xml.sax',
   'c:\\users\\mijail '
   'qa\\appdata\\local\\programs\\python\\python37\\lib\\xml\\sax\\__init__.py',
   'PYMODULE'),
  ('xml.sax.handler',
   'c:\\users\\mijail '
   'qa\\appdata\\local\\programs\\python\\python37\\lib\\xml\\sax\\handler.py',
   'PYMODULE'),
  ('xml.sax._exceptions',
   'c:\\users\\mijail '
   'qa\\appdata\\local\\programs\\python\\python37\\lib\\xml\\sax\\_exceptions.py',
   'PYMODULE'),
  ('xml.sax.xmlreader',
   'c:\\users\\mijail '
   'qa\\appdata\\local\\programs\\python\\python37\\lib\\xml\\sax\\xmlreader.py',
   'PYMODULE'),
  ('xml.parsers',
   'c:\\users\\mijail '
   'qa\\appdata\\local\\programs\\python\\python37\\lib\\xml\\parsers\\__init__.py',
   'PYMODULE'),
  ('xml.parsers.expat',
   'c:\\users\\mijail '
   'qa\\appdata\\local\\programs\\python\\python37\\lib\\xml\\parsers\\expat.py',
   'PYMODULE'),
  ('plistlib',
   'c:\\users\\mijail '
   'qa\\appdata\\local\\programs\\python\\python37\\lib\\plistlib.py',
   'PYMODULE'),
  ('platform',
   'c:\\users\\mijail '
   'qa\\appdata\\local\\programs\\python\\python37\\lib\\platform.py',
   'PYMODULE'),
  ('token',
   'c:\\users\\mijail '
   'qa\\appdata\\local\\programs\\python\\python37\\lib\\token.py',
   'PYMODULE'),
  ('tokenize',
   'c:\\users\\mijail '
   'qa\\appdata\\local\\programs\\python\\python37\\lib\\tokenize.py',
   'PYMODULE'),
  ('urllib.parse',
   'c:\\users\\mijail '
   'qa\\appdata\\local\\programs\\python\\python37\\lib\\urllib\\parse.py',
   'PYMODULE'),
  ('tempfile',
   'c:\\users\\mijail '
   'qa\\appdata\\local\\programs\\python\\python37\\lib\\tempfile.py',
   'PYMODULE'),
  ('subprocess',
   'c:\\users\\mijail '
   'qa\\appdata\\local\\programs\\python\\python37\\lib\\subprocess.py',
   'PYMODULE'),
  ('tty',
   'c:\\users\\mijail '
   'qa\\appdata\\local\\programs\\python\\python37\\lib\\tty.py',
   'PYMODULE'),
  ('pydoc_data',
   'c:\\users\\mijail '
   'qa\\appdata\\local\\programs\\python\\python37\\lib\\pydoc_data\\__init__.py',
   'PYMODULE'),
  ('pydoc_data.topics',
   'c:\\users\\mijail '
   'qa\\appdata\\local\\programs\\python\\python37\\lib\\pydoc_data\\topics.py',
   'PYMODULE'),
  ('html.entities',
   'c:\\users\\mijail '
   'qa\\appdata\\local\\programs\\python\\python37\\lib\\html\\entities.py',
   'PYMODULE'),
  ('html',
   'c:\\users\\mijail '
   'qa\\appdata\\local\\programs\\python\\python37\\lib\\html\\__init__.py',
   'PYMODULE'),
  ('ssl',
   'c:\\users\\mijail '
   'qa\\appdata\\local\\programs\\python\\python37\\lib\\ssl.py',
   'PYMODULE'),
  ('http.client',
   'c:\\users\\mijail '
   'qa\\appdata\\local\\programs\\python\\python37\\lib\\http\\client.py',
   'PYMODULE'),
  ('mimetypes',
   'c:\\users\\mijail '
   'qa\\appdata\\local\\programs\\python\\python37\\lib\\mimetypes.py',
   'PYMODULE'),
  ('socketserver',
   'c:\\users\\mijail '
   'qa\\appdata\\local\\programs\\python\\python37\\lib\\socketserver.py',
   'PYMODULE'),
  ('http',
   'c:\\users\\mijail '
   'qa\\appdata\\local\\programs\\python\\python37\\lib\\http\\__init__.py',
   'PYMODULE'),
  ('http.server',
   'c:\\users\\mijail '
   'qa\\appdata\\local\\programs\\python\\python37\\lib\\http\\server.py',
   'PYMODULE'),
  ('optparse',
   'c:\\users\\mijail '
   'qa\\appdata\\local\\programs\\python\\python37\\lib\\optparse.py',
   'PYMODULE'),
  ('uu',
   'c:\\users\\mijail '
   'qa\\appdata\\local\\programs\\python\\python37\\lib\\uu.py',
   'PYMODULE'),
  ('quopri',
   'c:\\users\\mijail '
   'qa\\appdata\\local\\programs\\python\\python37\\lib\\quopri.py',
   'PYMODULE'),
  ('email.feedparser',
   'c:\\users\\mijail '
   'qa\\appdata\\local\\programs\\python\\python37\\lib\\email\\feedparser.py',
   'PYMODULE'),
  ('email.parser',
   'c:\\users\\mijail '
   'qa\\appdata\\local\\programs\\python\\python37\\lib\\email\\parser.py',
   'PYMODULE'),
  ('email',
   'c:\\users\\mijail '
   'qa\\appdata\\local\\programs\\python\\python37\\lib\\email\\__init__.py',
   'PYMODULE'),
  ('calendar',
   'c:\\users\\mijail '
   'qa\\appdata\\local\\programs\\python\\python37\\lib\\calendar.py',
   'PYMODULE'),
  ('email._parseaddr',
   'c:\\users\\mijail '
   'qa\\appdata\\local\\programs\\python\\python37\\lib\\email\\_parseaddr.py',
   'PYMODULE'),
  ('email.utils',
   'c:\\users\\mijail '
   'qa\\appdata\\local\\programs\\python\\python37\\lib\\email\\utils.py',
   'PYMODULE'),
  ('email.errors',
   'c:\\users\\mijail '
   'qa\\appdata\\local\\programs\\python\\python37\\lib\\email\\errors.py',
   'PYMODULE'),
  ('email.header',
   'c:\\users\\mijail '
   'qa\\appdata\\local\\programs\\python\\python37\\lib\\email\\header.py',
   'PYMODULE'),
  ('email._policybase',
   'c:\\users\\mijail '
   'qa\\appdata\\local\\programs\\python\\python37\\lib\\email\\_policybase.py',
   'PYMODULE'),
  ('email.base64mime',
   'c:\\users\\mijail '
   'qa\\appdata\\local\\programs\\python\\python37\\lib\\email\\base64mime.py',
   'PYMODULE'),
  ('email.encoders',
   'c:\\users\\mijail '
   'qa\\appdata\\local\\programs\\python\\python37\\lib\\email\\encoders.py',
   'PYMODULE'),
  ('email.charset',
   'c:\\users\\mijail '
   'qa\\appdata\\local\\programs\\python\\python37\\lib\\email\\charset.py',
   'PYMODULE'),
  ('base64',
   'c:\\users\\mijail '
   'qa\\appdata\\local\\programs\\python\\python37\\lib\\base64.py',
   'PYMODULE'),
  ('email._encoded_words',
   'c:\\users\\mijail '
   'qa\\appdata\\local\\programs\\python\\python37\\lib\\email\\_encoded_words.py',
   'PYMODULE'),
  ('hashlib',
   'c:\\users\\mijail '
   'qa\\appdata\\local\\programs\\python\\python37\\lib\\hashlib.py',
   'PYMODULE'),
  ('bisect',
   'c:\\users\\mijail '
   'qa\\appdata\\local\\programs\\python\\python37\\lib\\bisect.py',
   'PYMODULE'),
  ('random',
   'c:\\users\\mijail '
   'qa\\appdata\\local\\programs\\python\\python37\\lib\\random.py',
   'PYMODULE'),
  ('email.generator',
   'c:\\users\\mijail '
   'qa\\appdata\\local\\programs\\python\\python37\\lib\\email\\generator.py',
   'PYMODULE'),
  ('email.iterators',
   'c:\\users\\mijail '
   'qa\\appdata\\local\\programs\\python\\python37\\lib\\email\\iterators.py',
   'PYMODULE'),
  ('urllib',
   'c:\\users\\mijail '
   'qa\\appdata\\local\\programs\\python\\python37\\lib\\urllib\\__init__.py',
   'PYMODULE'),
  ('email._header_value_parser',
   'c:\\users\\mijail '
   'qa\\appdata\\local\\programs\\python\\python37\\lib\\email\\_header_value_parser.py',
   'PYMODULE'),
  ('email.headerregistry',
   'c:\\users\\mijail '
   'qa\\appdata\\local\\programs\\python\\python37\\lib\\email\\headerregistry.py',
   'PYMODULE'),
  ('email.quoprimime',
   'c:\\users\\mijail '
   'qa\\appdata\\local\\programs\\python\\python37\\lib\\email\\quoprimime.py',
   'PYMODULE'),
  ('email.contentmanager',
   'c:\\users\\mijail '
   'qa\\appdata\\local\\programs\\python\\python37\\lib\\email\\contentmanager.py',
   'PYMODULE'),
  ('email.policy',
   'c:\\users\\mijail '
   'qa\\appdata\\local\\programs\\python\\python37\\lib\\email\\policy.py',
   'PYMODULE'),
  ('email.message',
   'c:\\users\\mijail '
   'qa\\appdata\\local\\programs\\python\\python37\\lib\\email\\message.py',
   'PYMODULE'),
  ('bz2',
   'c:\\users\\mijail '
   'qa\\appdata\\local\\programs\\python\\python37\\lib\\bz2.py',
   'PYMODULE'),
  ('lzma',
   'c:\\users\\mijail '
   'qa\\appdata\\local\\programs\\python\\python37\\lib\\lzma.py',
   'PYMODULE'),
  ('_compression',
   'c:\\users\\mijail '
   'qa\\appdata\\local\\programs\\python\\python37\\lib\\_compression.py',
   'PYMODULE'),
  ('gzip',
   'c:\\users\\mijail '
   'qa\\appdata\\local\\programs\\python\\python37\\lib\\gzip.py',
   'PYMODULE'),
  ('tarfile',
   'c:\\users\\mijail '
   'qa\\appdata\\local\\programs\\python\\python37\\lib\\tarfile.py',
   'PYMODULE'),
  ('py_compile',
   'c:\\users\\mijail '
   'qa\\appdata\\local\\programs\\python\\python37\\lib\\py_compile.py',
   'PYMODULE'),
  ('zipfile',
   'c:\\users\\mijail '
   'qa\\appdata\\local\\programs\\python\\python37\\lib\\zipfile.py',
   'PYMODULE'),
  ('shutil',
   'c:\\users\\mijail '
   'qa\\appdata\\local\\programs\\python\\python37\\lib\\shutil.py',
   'PYMODULE'),
  ('selectors',
   'c:\\users\\mijail '
   'qa\\appdata\\local\\programs\\python\\python37\\lib\\selectors.py',
   'PYMODULE'),
  ('socket',
   'c:\\users\\mijail '
   'qa\\appdata\\local\\programs\\python\\python37\\lib\\socket.py',
   'PYMODULE'),
  ('webbrowser',
   'c:\\users\\mijail '
   'qa\\appdata\\local\\programs\\python\\python37\\lib\\webbrowser.py',
   'PYMODULE'),
  ('pydoc',
   'c:\\users\\mijail '
   'qa\\appdata\\local\\programs\\python\\python37\\lib\\pydoc.py',
   'PYMODULE'),
  ('getopt',
   'c:\\users\\mijail '
   'qa\\appdata\\local\\programs\\python\\python37\\lib\\getopt.py',
   'PYMODULE'),
  ('pdb',
   'c:\\users\\mijail '
   'qa\\appdata\\local\\programs\\python\\python37\\lib\\pdb.py',
   'PYMODULE'),
  ('unittest.util',
   'c:\\users\\mijail '
   'qa\\appdata\\local\\programs\\python\\python37\\lib\\unittest\\util.py',
   'PYMODULE'),
  ('unittest.result',
   'c:\\users\\mijail '
   'qa\\appdata\\local\\programs\\python\\python37\\lib\\unittest\\result.py',
   'PYMODULE'),
  ('string',
   'c:\\users\\mijail '
   'qa\\appdata\\local\\programs\\python\\python37\\lib\\string.py',
   'PYMODULE'),
  ('_threading_local',
   'c:\\users\\mijail '
   'qa\\appdata\\local\\programs\\python\\python37\\lib\\_threading_local.py',
   'PYMODULE'),
  ('threading',
   'c:\\users\\mijail '
   'qa\\appdata\\local\\programs\\python\\python37\\lib\\threading.py',
   'PYMODULE'),
  ('_compat_pickle',
   'c:\\users\\mijail '
   'qa\\appdata\\local\\programs\\python\\python37\\lib\\_compat_pickle.py',
   'PYMODULE'),
  ('pickle',
   'c:\\users\\mijail '
   'qa\\appdata\\local\\programs\\python\\python37\\lib\\pickle.py',
   'PYMODULE'),
  ('logging',
   'c:\\users\\mijail '
   'qa\\appdata\\local\\programs\\python\\python37\\lib\\logging\\__init__.py',
   'PYMODULE'),
  ('pprint',
   'c:\\users\\mijail '
   'qa\\appdata\\local\\programs\\python\\python37\\lib\\pprint.py',
   'PYMODULE'),
  ('unittest.case',
   'c:\\users\\mijail '
   'qa\\appdata\\local\\programs\\python\\python37\\lib\\unittest\\case.py',
   'PYMODULE'),
  ('unittest.suite',
   'c:\\users\\mijail '
   'qa\\appdata\\local\\programs\\python\\python37\\lib\\unittest\\suite.py',
   'PYMODULE'),
  ('stat',
   'c:\\users\\mijail '
   'qa\\appdata\\local\\programs\\python\\python37\\lib\\stat.py',
   'PYMODULE'),
  ('genericpath',
   'c:\\users\\mijail '
   'qa\\appdata\\local\\programs\\python\\python37\\lib\\genericpath.py',
   'PYMODULE'),
  ('posixpath',
   'c:\\users\\mijail '
   'qa\\appdata\\local\\programs\\python\\python37\\lib\\posixpath.py',
   'PYMODULE'),
  ('fnmatch',
   'c:\\users\\mijail '
   'qa\\appdata\\local\\programs\\python\\python37\\lib\\fnmatch.py',
   'PYMODULE'),
  ('unittest.loader',
   'c:\\users\\mijail '
   'qa\\appdata\\local\\programs\\python\\python37\\lib\\unittest\\loader.py',
   'PYMODULE'),
  ('unittest.runner',
   'c:\\users\\mijail '
   'qa\\appdata\\local\\programs\\python\\python37\\lib\\unittest\\runner.py',
   'PYMODULE'),
  ('unittest.main',
   'c:\\users\\mijail '
   'qa\\appdata\\local\\programs\\python\\python37\\lib\\unittest\\main.py',
   'PYMODULE'),
  ('signal',
   'c:\\users\\mijail '
   'qa\\appdata\\local\\programs\\python\\python37\\lib\\signal.py',
   'PYMODULE'),
  ('unittest.signals',
   'c:\\users\\mijail '
   'qa\\appdata\\local\\programs\\python\\python37\\lib\\unittest\\signals.py',
   'PYMODULE'),
  ('unittest',
   'c:\\users\\mijail '
   'qa\\appdata\\local\\programs\\python\\python37\\lib\\unittest\\__init__.py',
   'PYMODULE'),
  ('struct',
   'c:\\users\\mijail '
   'qa\\appdata\\local\\programs\\python\\python37\\lib\\struct.py',
   'PYMODULE'),
  ('gettext',
   'c:\\users\\mijail '
   'qa\\appdata\\local\\programs\\python\\python37\\lib\\gettext.py',
   'PYMODULE'),
  ('textwrap',
   'c:\\users\\mijail '
   'qa\\appdata\\local\\programs\\python\\python37\\lib\\textwrap.py',
   'PYMODULE'),
  ('argparse',
   'c:\\users\\mijail '
   'qa\\appdata\\local\\programs\\python\\python37\\lib\\argparse.py',
   'PYMODULE'),
  ('doctest',
   'c:\\users\\mijail '
   'qa\\appdata\\local\\programs\\python\\python37\\lib\\doctest.py',
   'PYMODULE'),
  ('copy',
   'c:\\users\\mijail '
   'qa\\appdata\\local\\programs\\python\\python37\\lib\\copy.py',
   'PYMODULE'),
  ('_py_abc',
   'c:\\users\\mijail '
   'qa\\appdata\\local\\programs\\python\\python37\\lib\\_py_abc.py',
   'PYMODULE'),
  ('contextlib',
   'c:\\users\\mijail '
   'qa\\appdata\\local\\programs\\python\\python37\\lib\\contextlib.py',
   'PYMODULE'),
  ('typing',
   'c:\\users\\mijail '
   'qa\\appdata\\local\\programs\\python\\python37\\lib\\typing.py',
   'PYMODULE'),
  ('psutil',
   'c:\\users\\mijail '
   'qa\\appdata\\local\\programs\\python\\python37\\lib\\site-packages\\psutil\\__init__.py',
   'PYMODULE'),
  ('psutil._psaix',
   'c:\\users\\mijail '
   'qa\\appdata\\local\\programs\\python\\python37\\lib\\site-packages\\psutil\\_psaix.py',
   'PYMODULE'),
  ('psutil._pssunos',
   'c:\\users\\mijail '
   'qa\\appdata\\local\\programs\\python\\python37\\lib\\site-packages\\psutil\\_pssunos.py',
   'PYMODULE'),
  ('psutil._psbsd',
   'c:\\users\\mijail '
   'qa\\appdata\\local\\programs\\python\\python37\\lib\\site-packages\\psutil\\_psbsd.py',
   'PYMODULE'),
  ('xml.etree.ElementTree',
   'c:\\users\\mijail '
   'qa\\appdata\\local\\programs\\python\\python37\\lib\\xml\\etree\\ElementTree.py',
   'PYMODULE'),
  ('xml.etree.cElementTree',
   'c:\\users\\mijail '
   'qa\\appdata\\local\\programs\\python\\python37\\lib\\xml\\etree\\cElementTree.py',
   'PYMODULE'),
  ('xml.etree.ElementInclude',
   'c:\\users\\mijail '
   'qa\\appdata\\local\\programs\\python\\python37\\lib\\xml\\etree\\ElementInclude.py',
   'PYMODULE'),
  ('xml.etree.ElementPath',
   'c:\\users\\mijail '
   'qa\\appdata\\local\\programs\\python\\python37\\lib\\xml\\etree\\ElementPath.py',
   'PYMODULE'),
  ('xml.etree',
   'c:\\users\\mijail '
   'qa\\appdata\\local\\programs\\python\\python37\\lib\\xml\\etree\\__init__.py',
   'PYMODULE'),
  ('psutil._psosx',
   'c:\\users\\mijail '
   'qa\\appdata\\local\\programs\\python\\python37\\lib\\site-packages\\psutil\\_psosx.py',
   'PYMODULE'),
  ('psutil._pswindows',
   'c:\\users\\mijail '
   'qa\\appdata\\local\\programs\\python\\python37\\lib\\site-packages\\psutil\\_pswindows.py',
   'PYMODULE'),
  ('psutil._pslinux',
   'c:\\users\\mijail '
   'qa\\appdata\\local\\programs\\python\\python37\\lib\\site-packages\\psutil\\_pslinux.py',
   'PYMODULE'),
  ('psutil._psposix',
   'c:\\users\\mijail '
   'qa\\appdata\\local\\programs\\python\\python37\\lib\\site-packages\\psutil\\_psposix.py',
   'PYMODULE'),
  ('psutil._compat',
   'c:\\users\\mijail '
   'qa\\appdata\\local\\programs\\python\\python37\\lib\\site-packages\\psutil\\_compat.py',
   'PYMODULE'),
  ('dummy_threading',
   'c:\\users\\mijail '
   'qa\\appdata\\local\\programs\\python\\python37\\lib\\dummy_threading.py',
   'PYMODULE'),
  ('_dummy_thread',
   'c:\\users\\mijail '
   'qa\\appdata\\local\\programs\\python\\python37\\lib\\_dummy_thread.py',
   'PYMODULE'),
  ('psutil._common',
   'c:\\users\\mijail '
   'qa\\appdata\\local\\programs\\python\\python37\\lib\\site-packages\\psutil\\_common.py',
   'PYMODULE')],
 [('VCRUNTIME140.dll',
   'c:\\users\\mijail '
   'qa\\appdata\\local\\programs\\python\\python37\\VCRUNTIME140.dll',
   'BINARY'),
  ('python37.dll',
   'c:\\users\\mijail '
   'qa\\appdata\\local\\programs\\python\\python37\\python37.dll',
   'BINARY'),
  ('_ssl',
   'c:\\users\\mijail '
   'qa\\appdata\\local\\programs\\python\\python37\\DLLs\\_ssl.pyd',
   'EXTENSION'),
  ('pyexpat',
   'c:\\users\\mijail '
   'qa\\appdata\\local\\programs\\python\\python37\\DLLs\\pyexpat.pyd',
   'EXTENSION'),
  ('unicodedata',
   'c:\\users\\mijail '
   'qa\\appdata\\local\\programs\\python\\python37\\DLLs\\unicodedata.pyd',
   'EXTENSION'),
  ('_hashlib',
   'c:\\users\\mijail '
   'qa\\appdata\\local\\programs\\python\\python37\\DLLs\\_hashlib.pyd',
   'EXTENSION'),
  ('select',
   'c:\\users\\mijail '
   'qa\\appdata\\local\\programs\\python\\python37\\DLLs\\select.pyd',
   'EXTENSION'),
  ('_bz2',
   'c:\\users\\mijail '
   'qa\\appdata\\local\\programs\\python\\python37\\DLLs\\_bz2.pyd',
   'EXTENSION'),
  ('_lzma',
   'c:\\users\\mijail '
   'qa\\appdata\\local\\programs\\python\\python37\\DLLs\\_lzma.pyd',
   'EXTENSION'),
  ('_socket',
   'c:\\users\\mijail '
   'qa\\appdata\\local\\programs\\python\\python37\\DLLs\\_socket.pyd',
   'EXTENSION'),
  ('_elementtree',
   'c:\\users\\mijail '
   'qa\\appdata\\local\\programs\\python\\python37\\DLLs\\_elementtree.pyd',
   'EXTENSION'),
  ('psutil._psutil_windows',
   'c:\\users\\mijail '
   'qa\\appdata\\local\\programs\\python\\python37\\lib\\site-packages\\psutil\\_psutil_windows.cp37-win_amd64.pyd',
   'EXTENSION'),
  ('libcrypto-1_1.dll',
   'c:\\users\\mijail '
   'qa\\appdata\\local\\programs\\python\\python37\\DLLs\\libcrypto-1_1.dll',
   'BINARY'),
  ('libssl-1_1.dll',
   'c:\\users\\mijail '
   'qa\\appdata\\local\\programs\\python\\python37\\DLLs\\libssl-1_1.dll',
   'BINARY')],
 [],
 [],
 [('base_library.zip',
   'C:\\Users\\Mijail '
   'QA\\Desktop\\Nats-Server-Subscriber\\Ram-Cpu\\build\\get-id\\base_library.zip',
   'DATA')],
 [])
