([('get-id.exe',
   'C:\\Users\\Mijail '
   'QA\\Desktop\\Nats-Server-Subscriber\\Ram-Cpu\\build\\get-id\\get-id.exe',
   'EXECUTABLE'),
  ('get-id.exe.manifest',
   'C:\\Users\\Mijail '
   'QA\\Desktop\\Nats-Server-Subscriber\\Ram-Cpu\\build\\get-id\\get-id.exe.manifest',
   'BINARY'),
  ('VCRUNTIME140.dll',
   'c:\\users\\mijail '
   'qa\\appdata\\local\\programs\\python\\python37\\VCRUNTIME140.dll',
   'BINARY'),
  ('python37.dll',
   'c:\\users\\mijail '
   'qa\\appdata\\local\\programs\\python\\python37\\python37.dll',
   'BINARY'),
  ('_ssl',
   'c:\\users\\mijail '
   'qa\\appdata\\local\\programs\\python\\python37\\DLLs\\_ssl.pyd',
   'EXTENSION'),
  ('pyexpat',
   'c:\\users\\mijail '
   'qa\\appdata\\local\\programs\\python\\python37\\DLLs\\pyexpat.pyd',
   'EXTENSION'),
  ('unicodedata',
   'c:\\users\\mijail '
   'qa\\appdata\\local\\programs\\python\\python37\\DLLs\\unicodedata.pyd',
   'EXTENSION'),
  ('_hashlib',
   'c:\\users\\mijail '
   'qa\\appdata\\local\\programs\\python\\python37\\DLLs\\_hashlib.pyd',
   'EXTENSION'),
  ('select',
   'c:\\users\\mijail '
   'qa\\appdata\\local\\programs\\python\\python37\\DLLs\\select.pyd',
   'EXTENSION'),
  ('_bz2',
   'c:\\users\\mijail '
   'qa\\appdata\\local\\programs\\python\\python37\\DLLs\\_bz2.pyd',
   'EXTENSION'),
  ('_lzma',
   'c:\\users\\mijail '
   'qa\\appdata\\local\\programs\\python\\python37\\DLLs\\_lzma.pyd',
   'EXTENSION'),
  ('_socket',
   'c:\\users\\mijail '
   'qa\\appdata\\local\\programs\\python\\python37\\DLLs\\_socket.pyd',
   'EXTENSION'),
  ('_elementtree',
   'c:\\users\\mijail '
   'qa\\appdata\\local\\programs\\python\\python37\\DLLs\\_elementtree.pyd',
   'EXTENSION'),
  ('psutil._psutil_windows',
   'c:\\users\\mijail '
   'qa\\appdata\\local\\programs\\python\\python37\\lib\\site-packages\\psutil\\_psutil_windows.cp37-win_amd64.pyd',
   'EXTENSION'),
  ('libcrypto-1_1.dll',
   'c:\\users\\mijail '
   'qa\\appdata\\local\\programs\\python\\python37\\DLLs\\libcrypto-1_1.dll',
   'BINARY'),
  ('libssl-1_1.dll',
   'c:\\users\\mijail '
   'qa\\appdata\\local\\programs\\python\\python37\\DLLs\\libssl-1_1.dll',
   'BINARY'),
  ('base_library.zip',
   'C:\\Users\\Mijail '
   'QA\\Desktop\\Nats-Server-Subscriber\\Ram-Cpu\\build\\get-id\\base_library.zip',
   'DATA')],)
